{
  "additionalType": "Person",
  "alternateName": "",
  "description": "",
  "disambiguatingDescription": "",
  "identifier": "TimBushell",
  "image": "star.png",
  "mainEntityOfPage": "Person",
  "name": "TimBushell",
  "potentialAction": "inflateT",
  "sameAs": "",
  "subjectOf": "contributors",
  "url": "",
  "ItemList": {
    "itemListElement": [],
    "itemListOrder": "",
    "numberOfItems": 0
  },
  "Person": {
    "additionalName": "",
    "address": "",
    "affiliation": "",
    "alumniOf": "",
    "award": "",
    "awards": "",
    "birthDate": "1967-01-01",
    "birthPlace": "",
    "brand": "",
    "callSign": "",
    "children": "",
    "colleague": "",
    "colleagues": "",
    "contactPoint": "",
    "contactPoints": "",
    "deathDate": "",
    "deathPlace": "",
    "duns": "",
    "email": "theElioWay@gmail.com",
    "familyName": "",
    "faxNumber": "",
    "follows": "",
    "funder": "",
    "gender": "",
    "givenName": "",
    "globalLocationNumber": "",
    "hasCredential": "",
    "hasOccupation": "",
    "hasOfferCatalog": "",
    "hasPOS": "",
    "height": "",
    "homeLocation": "",
    "honorificPrefix": "",
    "honorificSuffix": "",
    "interactionStatistic": "",
    "isicV4": "",
    "jobTitle": "",
    "knows": "",
    "knowsAbout": "",
    "knowsLanguage": "",
    "makesOffer": "",
    "memberOf": "",
    "naics": "",
    "nationality": "",
    "netWorth": "",
    "owns": "",
    "parent": "",
    "parents": "",
    "performerIn": "",
    "publishingPrinciples": "",
    "relatedTo": "",
    "seeks": "",
    "sibling": "",
    "siblings": "",
    "sponsor": "",
    "spouse": "",
    "taxID": "",
    "telephone": "",
    "vatID": "",
    "weight": "",
    "workLocation": "",
    "worksFor": ""
  }
}
